УИРС ВСЁ/УИРС 2/Исследование характеристик/DS0003 2%.CSV

Format,1.0B,
Memory Length,10000,
IntpDistance,0,
Trigger Address,4069,
Trigger Level,1.400E+00,
Source,CH1,
Vertical Units,A,
Vertical Units Div,0,
Vertical Units Extend Div,36,
Label, ,
Probe Type,1,
Probe Ratio,1.000E+02,
Vertical Scale,2.000E-01,
Vertical Position,-6.080E-01,
Horizontal Units,S,
Horizontal Scale,1.000E-03,
Horizontal Position,9.300E-04,
Horizontal Mode,Main,
SincET Mode,Real Time,
Sampling Period,1.000E-06,
Horizontal Old Scale,1.000E-03,
Horizontal Old Position,9.300E-04,
Firmware,V1.17,
Mode,Detail,
Waveform Data,
-4.070000e-03,-9.60e-02,
-4.069000e-03,1.12e-01,
-4.068000e-03,1.84e-01,
-4.067000e-03,2.48e-01,
-4.066000e-03,3.44e-01,
-4.065000e-03,2.24e-01,
-4.064000e-03,1.52e-01,
-4.063000e-03,1.28e-01,
-4.062000e-03,8.80e-02,
-4.061000e-03,1.52e-01,
-4.060000e-03,-2.32e-01,
-4.059000e-03,8.00e-03,
-4.058000e-03,1.44e-01,
-4.057000e-03,4.80e-02,
-4.056000e-03,2.64e-01,
-4.055000e-03,1.04e-01,
-4.054000e-03,2.40e-02,
-4.053000e-03,1.12e-01,
-4.052000e-03,3.20e-02,
-4.051000e-03,-8.00e-03,
-4.050000e-03,7.20e-02,
-4.049000e-03,3.20e-02,
-4.048000e-03,-8.00e-03,
-4.047000e-03,-1.60e-02,
-4.046000e-03,3.20e-02,
-4.045000e-03,2.48e-01,
-4.044000e-03,8.80e-02,
-4.043000e-03,2.32e-01,
-4.042000e-03,-4.80e-02,
-4.041000e-03,-4.80e-02,
-4.040000e-03,-7.20e-02,
-4.039000e-03,-8.80e-02,
-4.038000e-03,-5.60e-02,
-4.037000e-03,3.20e-02,
-4.036000e-03,-8.00e-03,
-4.035000e-03,6.40e-02,
-4.034000e-03,-1.60e-02,
-4.033000e-03,-5.60e-02,
-4.032000e-03,4.80e-02,
-4.031000e-03,7.20e-02,
-4.030000e-03,-2.48e-01,
-4.029000e-03,-1.68e-01,
-4.028000e-03,-2.16e-01,
-4.027000e-03,4.80e-02,
-4.026000e-03,3.20e-02,
-4.025000e-03,1.92e-01,
-4.024000e-03,2.40e-02,
-4.023000e-03,4.80e-02,
-4.022000e-03,2.40e-02,
-4.021000e-03,8.00e-03,
-4.020000e-03,-8.00e-03,
-4.019000e-03,-8.00e-03,
-4.018000e-03,-3.20e-02,
-4.017000e-03,-1.60e-02,
-4.016000e-03,-1.60e-02,
-4.015000e-03,2.24e-01,
-4.014000e-03,1.92e-01,
-4.013000e-03,8.00e-03,
-4.012000e-03,-1.60e-02,
-4.011000e-03,-1.12e-01,
-4.010000e-03,-1.36e-01,
-4.009000e-03,-1.92e-01,
-4.008000e-03,-1.68e-01,
-4.007000e-03,-4.80e-02,
-4.006000e-03,2.40e-02,
-4.005000e-03,-3.20e-02,
-4.004000e-03,8.00e-03,
-4.003000e-03,1.04e-01,
-4.002000e-03,3.44e-01,
-4.001000e-03,-9.60e-02,
-4.000000e-03,-9.60e-02,
-3.999000e-03,-2.72e-01,
-3.998000e-03,-5.60e-02,
-3.997000e-03,7.20e-02,
-3.996000e-03,-1.60e-02,
-3.995000e-03,-8.00e-03,
-3.994000e-03,1.12e-01,
-3.993000e-03,-4.80e-02,
-3.992000e-03,2.40e-02,
-3.991000e-03,-5.60e-02,
-3.990000e-03,-9.60e-02,
-3.989000e-03,-9.60e-02,
-3.988000e-03,-5.60e-02,
-3.987000e-03,8.00e-03,
-3.986000e-03,-8.00e-03,
-3.985000e-03,-1.60e-02,
-3.984000e-03,-4.80e-02,
-3.983000e-03,2.40e-02,
-3.982000e-03,-1.60e-02,
-3.981000e-03,-1.60e-02,
-3.980000e-03,-1.36e-01,
-3.979000e-03,-1.52e-01,
-3.978000e-03,-5.60e-02,
-3.977000e-03,4.80e-02,
-3.976000e-03,-4.80e-02,
-3.975000e-03,-1.68e-01,
-3.974000e-03,-2.08e-01,
-3.973000e-03,1.68e-01,
-3.972000e-03,-4.16e-01,
-3.971000e-03,-1.52e-01,
-3.970000e-03,-4.08e-01,
-3.969000e-03,-1.12e-01,
-3.968000e-03,-3.20e-02,
-3.967000e-03,-8.80e-02,
-3.966000e-03,-5.60e-02,
-3.965000e-03,-1.36e-01,
-3.964000e-03,-1.68e-01,
-3.963000e-03,-1.28e-01,
-3.962000e-03,-1.12e-01,
-3.961000e-03,-1.12e-01,
-3.960000e-03,-1.28e-01,
-3.959000e-03,-1.36e-01,
-3.958000e-03,8.80e-02,
-3.957000e-03,1.68e-01,
-3.956000e-03,-1.36e-01,
-3.955000e-03,4.80e-02,
-3.954000e-03,-8.80e-02,
-3.953000e-03,-1.52e-01,
-3.952000e-03,-8.80e-02,
-3.951000e-03,-1.36e-01,
-3.950000e-03,-7.20e-02,
-3.949000e-03,8.80e-02,
-3.948000e-03,8.00e-03,
-3.947000e-03,-1.60e-02,
-3.946000e-03,-5.60e-02,
-3.945000e-03,8.00e-03,
-3.944000e-03,-5.60e-02,
-3.943000e-03,-2.88e-01,
-3.942000e-03,-1.68e-01,
-3.941000e-03,-2.88e-01,
-3.940000e-03,1.52e-01,
-3.939000e-03,3.20e-02,
-3.938000e-03,4.80e-02,
-3.937000e-03,7.20e-02,
-3.936000e-03,-3.20e-02,
-3.935000e-03,-5.60e-02,
-3.934000e-03,-9.60e-02,
-3.933000e-03,8.00e-03,
-3.932000e-03,1.28e-01,
-3.931000e-03,-8.00e-03,
-3.930000e-03,-4.80e-02,
-3.929000e-03,-3.36e-01,
-3.928000e-03,4.80e-02,
-3.927000e-03,7.20e-02,
-3.926000e-03,7.20e-02,
-3.925000e-03,-8.80e-02,
-3.924000e-03,-1.92e-01,
-3.923000e-03,-7.20e-02,
-3.922000e-03,-3.20e-02,
-3.921000e-03,3.20e-02,
-3.920000e-03,-1.60e-02,
-3.919000e-03,-3.20e-02,
-3.918000e-03,-1.60e-02,
-3.917000e-03,-4.80e-02,
-3.916000e-03,-1.60e-02,
-3.915000e-03,3.20e-02,
-3.914000e-03,8.00e-03,
-3.913000e-03,-4.80e-02,
-3.912000e-03,2.40e-02,
-3.911000e-03,1.68e-01,
-3.910000e-03,1.04e-01,
-3.909000e-03,-4.80e-02,
-3.908000e-03,-7.20e-02,
-3.907000e-03,-8.00e-03,
-3.906000e-03,-3.20e-02,
-3.905000e-03,-4.80e-02,
-3.904000e-03,-8.00e-03,
-3.903000e-03,7.20e-02,
-3.902000e-03,2.40e-02,
-3.901000e-03,1.12e-01,
-3.900000e-03,-3.36e-01,
-3.899000e-03,-3.20e-02,
-3.898000e-03,8.00e-03,
-3.897000e-03,1.28e-01,
-3.896000e-03,-1.60e-02,
-3.895000e-03,-4.80e-02,
-3.894000e-03,8.00e-03,
-3.893000e-03,-8.00e-03,
-3.892000e-03,-5.60e-02,
-3.891000e-03,7.20e-02,
-3.890000e-03,-1.60e-02,
-3.889000e-03,-9.60e-02,
-3.888000e-03,-7.20e-02,
-3.887000e-03,-3.20e-02,
-3.886000e-03,4.80e-02,
-3.885000e-03,-8.80e-02,
-3.884000e-03,1.04e-01,
-3.883000e-03,2.72e-01,
-3.882000e-03,1.04e-01,
-3.881000e-03,1.84e-01,
-3.880000e-03,8.00e-03,
-3.879000e-03,-8.00e-03,
-3.878000e-03,7.20e-02,
-3.877000e-03,1.04e-01,
-3.876000e-03,1.84e-01,
-3.875000e-03,2.48e-01,
-3.874000e-03,1.52e-01,
-3.873000e-03,2.72e-01,
-3.872000e-03,1.04e-01,
-3.871000e-03,3.20e-02,
-3.870000e-03,2.48e-01,
-3.869000e-03,-8.80e-02,
-3.868000e-03,1.84e-01,
-3.867000e-03,2.40e-02,
-3.866000e-03,8.00e-03,
-3.865000e-03,2.40e-02,
-3.864000e-03,4.80e-02,
-3.863000e-03,7.20e-02,
-3.862000e-03,3.20e-02,
-3.861000e-03,7.20e-02,
-3.860000e-03,-1.60e-02,
-3.859000e-03,-8.80e-02,
-3.858000e-03,4.80e-02,
-3.857000e-03,-4.80e-02,
-3.856000e-03,-8.80e-02,
-3.855000e-03,-2.48e-01,
-3.854000e-03,-8.00e-03,
-3.853000e-03,-3.20e-02,
-3.852000e-03,1.52e-01,
-3.851000e-03,1.44e-01,
-3.850000e-03,1.44e-01,
-3.849000e-03,3.20e-02,
-3.848000e-03,2.40e-02,
-3.847000e-03,-7.20e-02,
-3.846000e-03,3.20e-02,
-3.845000e-03,2.40e-02,
-3.844000e-03,-5.60e-02,
-3.843000e-03,1.04e-01,
-3.842000e-03,2.40e-02,
-3.841000e-03,1.92e-01,
-3.840000e-03,3.28e-01,
-3.839000e-03,1.92e-01,
-3.838000e-03,3.20e-02,
-3.837000e-03,-8.80e-02,
-3.836000e-03,-1.28e-01,
-3.835000e-03,-8.80e-02,
-3.834000e-03,-4.80e-02,
-3.833000e-03,3.20e-02,
-3.832000e-03,-8.00e-03,
-3.831000e-03,-5.60e-02,
-3.830000e-03,1.12e-01,
-3.829000e-03,-5.60e-02,
-3.828000e-03,8.80e-02,
-3.827000e-03,4.08e-01,
-3.826000e-03,-1.12e-01,
-3.825000e-03,-3.20e-02,
-3.824000e-03,-2.16e-01,
-3.823000e-03,1.68e-01,
-3.822000e-03,-7.20e-02,
-3.821000e-03,-3.20e-02,
-3.820000e-03,7.20e-02,
-3.819000e-03,-1.60e-02,
-3.818000e-03,4.80e-02,
-3.817000e-03,7.20e-02,
-3.816000e-03,8.00e-03,
-3.815000e-03,2.40e-02,
-3.814000e-03,8.00e-03,
-3.813000e-03,-3.20e-02,
-3.812000e-03,-1.28e-01,
-3.811000e-03,-5.60e-02,
-3.810000e-03,-7.20e-02,
-3.809000e-03,-8.00e-03,
-3.808000e-03,-5.60e-02,
-3.807000e-03,-4.80e-02,
-3.806000e-03,-9.60e-02,
-3.805000e-03,7.20e-02,
-3.804000e-03,6.40e-02,
-3.803000e-03,6.40e-02,
-3.802000e-03,6.40e-02,
-3.801000e-03,-8.80e-02,
-3.800000e-03,-3.20e-02,
-3.799000e-03,8.00e-03,
-3.798000e-03,5.12e-01,
-3.797000e-03,-5.60e-02,
-3.796000e-03,-1.60e-02,
-3.795000e-03,-1.52e-01,
-3.794000e-03,2.08e-01,
-3.793000e-03,3.20e-02,
-3.792000e-03,8.00e-03,
-3.791000e-03,-9.60e-02,
-3.790000e-03,2.40e-02,
-3.789000e-03,-1.60e-02,
-3.788000e-03,8.00e-03,
-3.787000e-03,-8.80e-02,
-3.786000e-03,-4.80e-02,
-3.785000e-03,6.40e-02,
-3.784000e-03,-1.60e-02,
-3.783000e-03,-4.80e-02,
-3.782000e-03,-2.16e-01,
-3.781000e-03,-3.92e-01,
-3.780000e-03,-2.56e-01,
-3.779000e-03,-1.76e-01,
-3.778000e-03,-2.32e-01,
-3.777000e-03,-2.32e-01,
-3.776000e-03,-1.36e-01,
-3.775000e-03,-1.12e-01,
-3.774000e-03,8.00e-03,
-3.773000e-03,-1.76e-01,
-3.772000e-03,-1.36e-01,
-3.771000e-03,-9.60e-02,
-3.770000e-03,-4.80e-02,
-3.769000e-03,-1.60e-02,
-3.768000e-03,-2.96e-01,
-3.767000e-03,-2.32e-01,
-3.766000e-03,-3.12e-01,
-3.765000e-03,8.80e-02,
-3.764000e-03,2.40e-02,
-3.763000e-03,-1.12e-01,
-3.762000e-03,-3.20e-02,
-3.761000e-03,-5.60e-02,
-3.760000e-03,-8.00e-03,
-3.759000e-03,3.20e-02,
-3.758000e-03,-7.20e-02,
-3.757000e-03,-8.80e-02,
-3.756000e-03,4.80e-02,
-3.755000e-03,-5.60e-02,
-3.754000e-03,-2.96e-01,
-3.753000e-03,1.12e-01,
-3.752000e-03,1.52e-01,
-3.751000e-03,8.80e-02,
-3.750000e-03,-1.60e-02,
-3.749000e-03,-3.20e-02,
-3.748000e-03,-4.80e-02,
-3.747000e-03,-8.00e-03,
-3.746000e-03,-8.80e-02,
-3.745000e-03,8.00e-03,
-3.744000e-03,1.12e-01,
-3.743000e-03,-7.20e-02,
-3.742000e-03,-3.20e-02,
-3.741000e-03,-4.80e-02,
-3.740000e-03,-9.60e-02,
-3.739000e-03,6.40e-02,
-3.738000e-03,-1.68e-01,
-3.737000e-03,-9.60e-02,
-3.736000e-03,6.40e-02,
-3.735000e-03,1.04e-01,
-3.734000e-03,1.52e-01,
-3.733000e-03,2.40e-02,
-3.732000e-03,8.00e-03,
-3.731000e-03,4.80e-02,
-3.730000e-03,-5.60e-02,
-3.729000e-03,3.20e-02,
-3.728000e-03,-4.80e-02,
-3.727000e-03,-1.60e-02,
-3.726000e-03,8.00e-03,
-3.725000e-03,-3.92e-01,
-3.724000e-03,-1.60e-02,
-3.723000e-03,2.40e-02,
-3.722000e-03,1.68e-01,
-3.721000e-03,-3.20e-02,
-3.720000e-03,-7.20e-02,
-3.719000e-03,-3.20e-02,
-3.718000e-03,-9.60e-02,
-3.717000e-03,6.40e-02,
-3.716000e-03,1.12e-01,
-3.715000e-03,6.40e-02,
-3.714000e-03,-3.20e-02,
-3.713000e-03,-1.28e-01,
-3.712000e-03,2.40e-02,
-3.711000e-03,-5.60e-02,
-3.710000e-03,-8.80e-02,
-3.709000e-03,-8.00e-03,
-3.708000e-03,-3.20e-02,
-3.707000e-03,7.20e-02,
-3.706000e-03,1.28e-01,
-3.705000e-03,8.00e-03,
-3.704000e-03,6.40e-02,
-3.703000e-03,-1.60e-02,
-3.702000e-03,-8.00e-03,
-3.701000e-03,6.40e-02,
-3.700000e-03,2.40e-02,
-3.699000e-03,-8.00e-03,
-3.698000e-03,-5.60e-02,
-3.697000e-03,-8.80e-02,
-3.696000e-03,-4.16e-01,
-3.695000e-03,1.04e-01,
-3.694000e-03,-3.20e-02,
-3.693000e-03,8.00e-03,
-3.692000e-03,3.20e-02,
-3.691000e-03,3.20e-02,
-3.690000e-03,-9.60e-02,
-3.689000e-03,3.20e-02,
-3.688000e-03,-1.60e-02,
-3.687000e-03,6.40e-02,
-3.686000e-03,1.92e-01,
-3.685000e-03,1.92e-01,
-3.684000e-03,1.12e-01,
-3.683000e-03,1.28e-01,
-3.682000e-03,1.84e-01,
-3.681000e-03,6.40e-02,
-3.680000e-03,-7.20e-02,
-3.679000e-03,1.92e-01,
-3.678000e-03,8.80e-02,
-3.677000e-03,7.20e-02,
-3.676000e-03,1.44e-01,
-3.675000e-03,3.20e-02,
-3.674000e-03,1.04e-01,
-3.673000e-03,4.80e-02,
-3.672000e-03,1.28e-01,
-3.671000e-03,8.80e-02,
-3.670000e-03,3.20e-02,
-3.669000e-03,-3.20e-02,
-3.668000e-03,-1.60e-02,
-3.667000e-03,2.40e-02,
-3.666000e-03,1.84e-01,
-3.665000e-03,1.92e-01,
-3.664000e-03,1.68e-01,
-3.663000e-03,1.04e-01,
-3.662000e-03,4.80e-02,
-3.661000e-03,-5.60e-02,
-3.660000e-03,-5.60e-02,
-3.659000e-03,1.44e-01,
-3.658000e-03,-9.60e-02,
-3.657000e-03,3.20e-02,
-3.656000e-03,-1.28e-01,
-3.655000e-03,-1.12e-01,
-3.654000e-03,8.80e-02,
-3.653000e-03,-8.00e-03,
-3.652000e-03,4.24e-01,
-3.651000e-03,-1.52e-01,
-3.650000e-03,-1.12e-01,
-3.649000e-03,-2.48e-01,
-3.648000e-03,8.80e-02,
-3.647000e-03,2.40e-02,
-3.646000e-03,8.80e-02,
-3.645000e-03,-7.20e-02,
-3.644000e-03,8.00e-03,
-3.643000e-03,-1.36e-01,
-3.642000e-03,-3.20e-02,
-3.641000e-03,-8.00e-03,
-3.640000e-03,-4.80e-02,
-3.639000e-03,1.04e-01,
-3.638000e-03,-4.80e-02,
-3.637000e-03,6.40e-02,
-3.636000e-03,3.20e-02,
-3.635000e-03,1.04e-01,
-3.634000e-03,1.04e-01,
-3.633000e-03,-1.28e-01,
-3.632000e-03,1.28e-01,
-3.631000e-03,-3.20e-02,
-3.630000e-03,-1.60e-02,
-3.629000e-03,2.40e-02,
-3.628000e-03,-4.80e-02,
-3.627000e-03,4.80e-02,
-3.626000e-03,-5.60e-02,
-3.625000e-03,-4.80e-02,
-3.624000e-03,-3.20e-02,
-3.623000e-03,6.48e-01,
-3.622000e-03,-4.80e-02,
-3.621000e-03,8.00e-03,
-3.620000e-03,-2.96e-01,
-3.619000e-03,7.20e-02,
-3.618000e-03,2.40e-02,
-3.617000e-03,-4.80e-02,
-3.616000e-03,7.20e-02,
-3.615000e-03,2.40e-02,
-3.614000e-03,-8.00e-03,
-3.613000e-03,8.80e-02,
-3.612000e-03,-1.60e-02,
-3.611000e-03,-5.60e-02,
-3.610000e-03,-1.60e-02,
-3.609000e-03,-1.60e-02,
-3.608000e-03,-1.60e-02,
-3.607000e-03,1.12e-01,
-3.606000e-03,-1.60e-02,
-3.605000e-03,-9.60e-02,
-3.604000e-03,4.80e-02,
-3.603000e-03,-1.60e-02,
-3.602000e-03,-1.60e-02,
-3.601000e-03,2.40e-02,
-3.600000e-03,8.80e-02,
-3.599000e-03,6.40e-02,
-3.598000e-03,8.00e-03,
-3.597000e-03,8.00e-03,
-3.596000e-03,-1.92e-01,
-3.595000e-03,-7.20e-02,
-3.594000e-03,8.00e-03,
-3.593000e-03,-3.36e-01,
-3.592000e-03,-3.20e-02,
-3.591000e-03,-3.68e-01,
-3.590000e-03,-1.92e-01,
-3.589000e-03,-1.68e-01,
-3.588000e-03,-1.36e-01,
-3.587000e-03,-1.36e-01,
-3.586000e-03,-1.92e-01,
-3.585000e-03,-9.60e-02,
-3.584000e-03,-8.80e-02,
-3.583000e-03,-1.36e-01,
-3.582000e-03,-5.60e-02,
-3.581000e-03,-4.80e-02,
-3.580000e-03,-1.76e-01,
-3.579000e-03,1.12e-01,
-3.578000e-03,3.20e-02,
-3.577000e-03,-1.60e-02,
-3.576000e-03,8.00e-03,
-3.575000e-03,-1.36e-01,
-3.574000e-03,-1.52e-01,
-3.573000e-03,-1.12e-01,
-3.572000e-03,-1.28e-01,
-3.571000e-03,-5.60e-02,
-3.570000e-03,-8.00e-03,
-3.569000e-03,6.40e-02,
-3.568000e-03,-4.80e-02,
-3.567000e-03,-3.20e-02,
-3.566000e-03,1.28e-01,
-3.565000e-03,-5.60e-02,
-3.564000e-03,-2.16e-01,
-3.563000e-03,-1.92e-01,
-3.562000e-03,-2.72e-01,
-3.561000e-03,1.44e-01,
-3.560000e-03,2.40e-02,
-3.559000e-03,8.00e-03,
-3.558000e-03,-3.20e-02,
-3.557000e-03,-1.12e-01,
-3.556000e-03,-1.60e-02,
-3.555000e-03,-9.60e-02,
-3.554000e-03,1.68e-01,
-3.553000e-03,-3.20e-02,
-3.552000e-03,-8.00e-03,
-3.551000e-03,8.00e-03,
-3.550000e-03,-4.08e-01,
-3.549000e-03,1.04e-01,
-3.548000e-03,1.44e-01,
-3.547000e-03,1.84e-01,
-3.546000e-03,-4.80e-02,
-3.545000e-03,-1.28e-01,
-3.544000e-03,-4.80e-02,
-3.543000e-03,-4.80e-02,
-3.542000e-03,-9.60e-02,
-3.541000e-03,-4.80e-02,
-3.540000e-03,-8.80e-02,
-3.539000e-03,4.80e-02,
-3.538000e-03,-5.60e-02,
-3.537000e-03,6.40e-02,
-3.536000e-03,8.00e-03,
-3.535000e-03,3.20e-02,
-3.534000e-03,7.20e-02,
-3.533000e-03,-1.60e-02,
-3.532000e-03,1.84e-01,
-3.531000e-03,6.40e-02,
-3.530000e-03,-3.20e-02,
-3.529000e-03,3.20e-02,
-3.528000e-03,8.00e-03,
-3.527000e-03,-9.60e-02,
-3.526000e-03,-8.00e-03,
-3.525000e-03,8.00e-03,
-3.524000e-03,3.20e-02,
-3.523000e-03,-5.60e-02,
-3.522000e-03,-1.60e-02,
-3.521000e-03,-4.16e-01,
-3.520000e-03,6.40e-02,
-3.519000e-03,2.40e-02,
-3.518000e-03,3.20e-02,
-3.517000e-03,-4.80e-02,
-3.516000e-03,-8.00e-03,
-3.515000e-03,-9.60e-02,
-3.514000e-03,-4.80e-02,
-3.513000e-03,-4.80e-02,
-3.512000e-03,-8.00e-03,
-3.511000e-03,4.80e-02,
-3.510000e-03,3.20e-02,
-3.509000e-03,2.40e-02,
-3.508000e-03,-4.80e-02,
-3.507000e-03,-3.20e-02,
-3.506000e-03,-4.80e-02,
-3.505000e-03,-1.28e-01,
-3.504000e-03,4.80e-02,
-3.503000e-03,-8.00e-03,
-3.502000e-03,2.40e-02,
-3.501000e-03,1.52e-01,
-3.500000e-03,6.40e-02,
-3.499000e-03,3.20e-02,
-3.498000e-03,-1.60e-02,
-3.497000e-03,-1.60e-02,
-3.496000e-03,2.40e-02,
-3.495000e-03,1.84e-01,
-3.494000e-03,3.04e-01,
-3.493000e-03,1.44e-01,
-3.492000e-03,2.08e-01,
-3.491000e-03,4.32e-01,
-3.490000e-03,2.48e-01,
-3.489000e-03,2.32e-01,
-3.488000e-03,-8.00e-03,
-3.487000e-03,1.92e-01,
-3.486000e-03,8.80e-02,
-3.485000e-03,8.80e-02,
-3.484000e-03,3.20e-02,
-3.483000e-03,1.12e-01,
-3.482000e-03,8.80e-02,
-3.481000e-03,3.20e-02,
-3.480000e-03,-4.80e-02,
-3.479000e-03,6.40e-02,
-3.478000e-03,3.20e-02,
-3.477000e-03,1.44e-01,
-3.476000e-03,-2.08e-01,
-3.475000e-03,3.20e-02,
-3.474000e-03,-7.20e-02,
-3.473000e-03,1.68e-01,
-3.472000e-03,2.40e-02,
-3.471000e-03,1.52e-01,
-3.470000e-03,1.28e-01,
-3.469000e-03,2.40e-02,
-3.468000e-03,-8.00e-03,
-3.467000e-03,-1.60e-02,
-3.466000e-03,1.12e-01,
-3.465000e-03,6.40e-02,
-3.464000e-03,8.00e-03,
-3.463000e-03,6.40e-02,
-3.462000e-03,3.20e-02,
-3.461000e-03,1.44e-01,
-3.460000e-03,8.00e-03,
-3.459000e-03,-8.80e-02,
-3.458000e-03,-4.80e-02,
-3.457000e-03,-5.60e-02,
-3.456000e-03,-4.80e-02,
-3.455000e-03,3.20e-02,
-3.454000e-03,-8.00e-03,
-3.453000e-03,-3.20e-02,
-3.452000e-03,8.00e-03,
-3.451000e-03,-3.20e-02,
-3.450000e-03,-9.60e-02,
-3.449000e-03,6.40e-02,
-3.448000e-03,4.08e-01,
-3.447000e-03,-8.00e-03,
-3.446000e-03,-9.60e-02,
-3.445000e-03,-2.56e-01,
-3.444000e-03,2.08e-01,
-3.443000e-03,8.00e-03,
-3.442000e-03,6.40e-02,
-3.441000e-03,-1.60e-02,
-3.440000e-03,-1.92e-01,
-3.439000e-03,-8.00e-03,
-3.438000e-03,-1.28e-01,
-3.437000e-03,7.20e-02,
-3.436000e-03,8.00e-03,
-3.435000e-03,4.80e-02,
-3.434000e-03,2.40e-02,
-3.433000e-03,2.40e-02,
-3.432000e-03,8.80e-02,
-3.431000e-03,-4.80e-02,
-3.430000e-03,-3.20e-02,
-3.429000e-03,-8.00e-03,
-3.428000e-03,-7.20e-02,
-3.427000e-03,-1.60e-02,
-3.426000e-03,-8.00e-03,
-3.425000e-03,-8.00e-03,
-3.424000e-03,6.40e-02,
-3.423000e-03,3.20e-02,
-3.422000e-03,4.80e-02,
-3.421000e-03,-7.20e-02,
-3.420000e-03,8.80e-02,
-3.419000e-03,2.24e-01,
-3.418000e-03,-2.72e-01,
-3.417000e-03,7.20e-02,
-3.416000e-03,-2.32e-01,
-3.415000e-03,2.08e-01,
-3.414000e-03,6.40e-02,
-3.413000e-03,-8.00e-03,
-3.412000e-03,4.80e-02,
-3.411000e-03,3.20e-02,
-3.410000e-03,4.80e-02,
-3.409000e-03,-7.20e-02,
-3.408000e-03,-8.80e-02,
-3.407000e-03,-3.20e-02,
-3.406000e-03,-5.60e-02,
-3.405000e-03,-1.28e-01,
-3.404000e-03,1.12e-01,
-3.403000e-03,8.80e-02,
-3.402000e-03,-8.00e-03,
-3.401000e-03,-7.20e-02,
-3.400000e-03,-1.76e-01,
-3.399000e-03,-4.08e-01,
-3.398000e-03,-3.68e-01,
-3.397000e-03,-1.68e-01,
-3.396000e-03,-2.32e-01,
-3.395000e-03,-8.80e-02,
-3.394000e-03,-1.12e-01,
-3.393000e-03,-2.16e-01,
-3.392000e-03,-1.36e-01,
-3.391000e-03,-1.52e-01,
-3.390000e-03,-7.20e-02,
-3.389000e-03,-2.16e-01,
-3.388000e-03,-3.28e-01,
-3.387000e-03,-3.76e-01,
-3.386000e-03,-4.80e-02,
-3.385000e-03,-1.60e-02,
-3.384000e-03,2.40e-02,
-3.383000e-03,-8.80e-02,
-3.382000e-03,8.00e-03,
-3.381000e-03,-7.20e-02,
-3.380000e-03,-5.60e-02,
-3.379000e-03,4.80e-02,
-3.378000e-03,-9.60e-02,
-3.377000e-03,-1.28e-01,
-3.376000e-03,-3.20e-02,
-3.375000e-03,-3.92e-01,
-3.374000e-03,2.40e-02,
-3.373000e-03,-1.60e-02,
-3.372000e-03,7.20e-02,
-3.371000e-03,-3.20e-02,
-3.370000e-03,7.20e-02,
-3.369000e-03,-4.80e-02,
-3.368000e-03,-7.20e-02,
-3.367000e-03,4.80e-02,
-3.366000e-03,-1.12e-01,
-3.365000e-03,8.00e-03,
-3.364000e-03,4.80e-02,
-3.363000e-03,-1.52e-01,
-3.362000e-03,7.20e-02,
-3.361000e-03,8.00e-03,
-3.360000e-03,1.68e-01,
-3.359000e-03,2.40e-02,
-3.358000e-03,-7.20e-02,
-3.357000e-03,6.40e-02,
-3.356000e-03,2.40e-02,
-3.355000e-03,-3.20e-02,
-3.354000e-03,-8.00e-03,
-3.353000e-03,4.80e-02,
-3.352000e-03,-1.60e-02,
-3.351000e-03,8.00e-03,
-3.350000e-03,8.00e-03,
-3.349000e-03,-1.36e-01,
-3.348000e-03,4.80e-02,
-3.347000e-03,-1.36e-01,
-3.346000e-03,-4.16e-01,
-3.345000e-03,-7.20e-02,
-3.344000e-03,-7.20e-02,
-3.343000e-03,2.08e-01,
-3.342000e-03,-1.12e-01,
-3.341000e-03,-3.20e-02,
-3.340000e-03,-1.52e-01,
-3.339000e-03,-4.80e-02,
-3.338000e-03,-1.60e-02,
-3.337000e-03,6.40e-02,
-3.336000e-03,8.80e-02,
-3.335000e-03,3.20e-02,
-3.334000e-03,-8.80e-02,
-3.333000e-03,2.40e-02,
-3.332000e-03,4.80e-02,
-3.331000e-03,-1.92e-01,
-3.330000e-03,-4.80e-02,
-3.329000e-03,8.80e-02,
-3.328000e-03,-3.20e-02,
-3.327000e-03,1.44e-01,
-3.326000e-03,3.20e-02,
-3.325000e-03,-3.20e-02,
-3.324000e-03,-1.60e-02,
-3.323000e-03,3.20e-02,
-3.322000e-03,8.00e-03,
-3.321000e-03,7.20e-02,
-3.320000e-03,-8.00e-03,
-3.319000e-03,-1.60e-02,
-3.318000e-03,-8.00e-03,
-3.317000e-03,2.40e-02,
-3.316000e-03,2.08e-01,
-3.315000e-03,8.80e-02,
-3.314000e-03,8.80e-02,
-3.313000e-03,-5.60e-02,
-3.312000e-03,-4.80e-02,
-3.311000e-03,-2.32e-01,
-3.310000e-03,-1.52e-01,
-3.309000e-03,1.92e-01,
-3.308000e-03,7.20e-02,
-3.307000e-03,-1.60e-02,
-3.306000e-03,8.80e-02,
-3.305000e-03,-4.80e-02,
-3.304000e-03,-8.00e-03,
-3.303000e-03,2.32e-01,
-3.302000e-03,4.72e-01,
-3.301000e-03,-1.60e-02,
-3.300000e-03,8.00e-03,
-3.299000e-03,3.20e-02,
-3.298000e-03,2.72e-01,
-3.297000e-03,8.80e-02,
-3.296000e-03,2.88e-01,
-3.295000e-03,7.20e-02,
-3.294000e-03,8.80e-02,
-3.293000e-03,6.40e-02,
-3.292000e-03,4.80e-02,
-3.291000e-03,8.80e-02,
-3.290000e-03,4.80e-02,
-3.289000e-03,1.04e-01,
-3.288000e-03,7.20e-02,
-3.287000e-03,-8.80e-02,
-3.286000e-03,1.44e-01,
-3.285000e-03,2.40e-02,
-3.284000e-03,2.40e-02,
-3.283000e-03,-7.20e-02,
-3.282000e-03,-8.80e-02,
-3.281000e-03,-4.80e-02,
-3.280000e-03,2.40e-02,
-3.279000e-03,1.52e-01,
-3.278000e-03,1.28e-01,
