УИРС ВСЁ/УИРС 2/Исследование характеристик/OscilA либо 3 либо 4%.CSV

Format,1.0B,
Memory Length,10000,
IntpDistance,0,
Trigger Address,4469,
Trigger Level,1.360E+00,
Source,CH1,
Vertical Units,A,
Vertical Units Div,0,
Vertical Units Extend Div,36,
Label, ,
Probe Type,1,
Probe Ratio,1.000E+02,
Vertical Scale,1.000E+00,
Vertical Position,-3.040E+00,
Horizontal Units,S,
Horizontal Scale,1.000E-03,
Horizontal Position,5.300E-04,
Horizontal Mode,Main,
SincET Mode,Real Time,
Sampling Period,1.000E-06,
Horizontal Old Scale,1.000E-03,
Horizontal Old Position,5.300E-04,
Firmware,V1.17,
Mode,Detail,
Waveform Data,
-4.470000e-03,-8.00e-02,
-4.469000e-03,1.60e-01,
-4.468000e-03,-4.00e-02,
-4.467000e-03,-8.00e-02,
-4.466000e-03,8.00e-02,
-4.465000e-03,0.00e+00,
-4.464000e-03,0.00e+00,
-4.463000e-03,4.00e-01,
-4.462000e-03,-8.00e-02,
-4.461000e-03,1.60e-01,
-4.460000e-03,-1.60e-01,
-4.459000e-03,2.40e-01,
-4.458000e-03,1.20e-01,
-4.457000e-03,0.00e+00,
-4.456000e-03,1.60e-01,
-4.455000e-03,-8.00e-02,
-4.454000e-03,0.00e+00,
-4.453000e-03,-4.00e-02,
-4.452000e-03,2.80e-01,
-4.451000e-03,3.20e-01,
-4.450000e-03,1.20e-01,
-4.449000e-03,2.40e-01,
-4.448000e-03,8.00e-02,
-4.447000e-03,1.60e-01,
-4.446000e-03,1.60e-01,
-4.445000e-03,8.00e-02,
-4.444000e-03,1.60e-01,
-4.443000e-03,8.00e-02,
-4.442000e-03,8.00e-02,
-4.441000e-03,1.20e-01,
-4.440000e-03,8.00e-02,
-4.439000e-03,1.60e-01,
-4.438000e-03,0.00e+00,
-4.437000e-03,0.00e+00,
-4.436000e-03,8.00e-02,
-4.435000e-03,8.00e-02,
-4.434000e-03,4.80e-01,
-4.433000e-03,-8.00e-02,
-4.432000e-03,1.60e-01,
-4.431000e-03,-4.00e-02,
-4.430000e-03,1.60e-01,
-4.429000e-03,1.60e-01,
-4.428000e-03,1.20e-01,
-4.427000e-03,8.00e-02,
-4.426000e-03,8.00e-02,
-4.425000e-03,8.00e-02,
-4.424000e-03,1.20e-01,
-4.423000e-03,1.20e-01,
-4.422000e-03,-4.00e-02,
-4.421000e-03,1.20e-01,
-4.420000e-03,-8.00e-02,
-4.419000e-03,1.20e-01,
-4.418000e-03,0.00e+00,
-4.417000e-03,0.00e+00,
-4.416000e-03,0.00e+00,
-4.415000e-03,-4.00e-02,
-4.414000e-03,1.20e-01,
-4.413000e-03,0.00e+00,
-4.412000e-03,8.00e-02,
-4.411000e-03,1.20e-01,
-4.410000e-03,0.00e+00,
-4.409000e-03,8.00e-02,
-4.408000e-03,0.00e+00,
-4.407000e-03,0.00e+00,
-4.406000e-03,-4.00e-02,
-4.405000e-03,0.00e+00,
-4.404000e-03,-1.60e-01,
-4.403000e-03,0.00e+00,
-4.402000e-03,-4.00e-02,
-4.401000e-03,1.60e-01,
-4.400000e-03,1.60e-01,
-4.399000e-03,0.00e+00,
-4.398000e-03,-4.00e-02,
-4.397000e-03,-8.00e-02,
-4.396000e-03,0.00e+00,
-4.395000e-03,-4.00e-02,
-4.394000e-03,1.20e-01,
-4.393000e-03,0.00e+00,
-4.392000e-03,0.00e+00,
-4.391000e-03,0.00e+00,
-4.390000e-03,8.00e-02,
-4.389000e-03,2.80e-01,
-4.388000e-03,0.00e+00,
-4.387000e-03,-4.00e-02,
-4.386000e-03,0.00e+00,
-4.385000e-03,-8.00e-02,
-4.384000e-03,0.00e+00,
-4.383000e-03,0.00e+00,
-4.382000e-03,0.00e+00,
-4.381000e-03,8.00e-02,
-4.380000e-03,-4.00e-02,
-4.379000e-03,8.00e-02,
-4.378000e-03,-4.00e-02,
-4.377000e-03,-8.00e-02,
-4.376000e-03,0.00e+00,
-4.375000e-03,-4.00e-02,
-4.374000e-03,-4.00e-02,
-4.373000e-03,-2.00e-01,
-4.372000e-03,0.00e+00,
-4.371000e-03,8.00e-02,
-4.370000e-03,1.20e-01,
-4.369000e-03,1.60e-01,
-4.368000e-03,0.00e+00,
-4.367000e-03,8.00e-02,
-4.366000e-03,8.00e-02,
-4.365000e-03,0.00e+00,
-4.364000e-03,1.60e-01,
-4.363000e-03,1.20e-01,
-4.362000e-03,8.00e-02,
-4.361000e-03,-2.00e-01,
-4.360000e-03,0.00e+00,
-4.359000e-03,-1.60e-01,
-4.358000e-03,-2.40e-01,
-4.357000e-03,-2.40e-01,
-4.356000e-03,-1.60e-01,
-4.355000e-03,-8.00e-02,
-4.354000e-03,-1.60e-01,
-4.353000e-03,-4.00e-02,
-4.352000e-03,-4.00e-02,
-4.351000e-03,0.00e+00,
-4.350000e-03,-8.00e-02,
-4.349000e-03,-8.00e-02,
-4.348000e-03,0.00e+00,
-4.347000e-03,-4.00e-02,
-4.346000e-03,8.00e-02,
-4.345000e-03,-4.00e-02,
-4.344000e-03,-1.60e-01,
-4.343000e-03,1.20e-01,
-4.342000e-03,8.00e-02,
-4.341000e-03,8.00e-02,
-4.340000e-03,0.00e+00,
-4.339000e-03,-4.00e-02,
-4.338000e-03,-4.00e-02,
-4.337000e-03,-4.00e-02,
-4.336000e-03,8.00e-02,
-4.335000e-03,0.00e+00,
-4.334000e-03,-8.00e-02,
-4.333000e-03,1.20e-01,
-4.332000e-03,-3.60e-01,
-4.331000e-03,1.20e-01,
-4.330000e-03,-4.00e-02,
-4.329000e-03,0.00e+00,
-4.328000e-03,0.00e+00,
-4.327000e-03,-1.60e-01,
-4.326000e-03,0.00e+00,
-4.325000e-03,0.00e+00,
-4.324000e-03,0.00e+00,
-4.323000e-03,8.00e-02,
-4.322000e-03,8.00e-02,
-4.321000e-03,8.00e-02,
-4.320000e-03,0.00e+00,
-4.319000e-03,0.00e+00,
-4.318000e-03,8.00e-02,
-4.317000e-03,-1.60e-01,
-4.316000e-03,-1.60e-01,
-4.315000e-03,0.00e+00,
-4.314000e-03,8.00e-02,
-4.313000e-03,8.00e-02,
-4.312000e-03,-4.00e-02,
-4.311000e-03,-8.00e-02,
-4.310000e-03,8.00e-02,
-4.309000e-03,1.60e-01,
-4.308000e-03,8.00e-02,
-4.307000e-03,0.00e+00,
-4.306000e-03,8.00e-02,
-4.305000e-03,-4.00e-02,
-4.304000e-03,1.20e-01,
-4.303000e-03,1.20e-01,
-4.302000e-03,8.00e-02,
-4.301000e-03,8.00e-02,
-4.300000e-03,8.00e-02,
-4.299000e-03,-8.00e-02,
-4.298000e-03,-4.00e-02,
-4.297000e-03,-8.00e-02,
-4.296000e-03,8.00e-02,
-4.295000e-03,0.00e+00,
-4.294000e-03,8.00e-02,
-4.293000e-03,1.20e-01,
-4.292000e-03,-4.00e-02,
-4.291000e-03,8.00e-02,
-4.290000e-03,1.20e-01,
-4.289000e-03,0.00e+00,
-4.288000e-03,-1.60e-01,
-4.287000e-03,-1.60e-01,
-4.286000e-03,-4.00e-02,
-4.285000e-03,0.00e+00,
-4.284000e-03,0.00e+00,
-4.283000e-03,0.00e+00,
-4.282000e-03,1.20e-01,
-4.281000e-03,0.00e+00,
-4.280000e-03,8.00e-02,
-4.279000e-03,-4.00e-02,
-4.278000e-03,0.00e+00,
-4.277000e-03,-4.00e-02,
-4.276000e-03,0.00e+00,
-4.275000e-03,-4.00e-02,
-4.274000e-03,-8.00e-02,
-4.273000e-03,1.60e-01,
-4.272000e-03,0.00e+00,
-4.271000e-03,2.40e-01,
-4.270000e-03,-4.00e-02,
-4.269000e-03,0.00e+00,
-4.268000e-03,1.60e-01,
-4.267000e-03,-4.00e-02,
-4.266000e-03,8.00e-02,
-4.265000e-03,1.20e-01,
-4.264000e-03,2.40e-01,
-4.263000e-03,1.20e-01,
-4.262000e-03,1.20e-01,
-4.261000e-03,1.60e-01,
-4.260000e-03,1.60e-01,
-4.259000e-03,2.40e-01,
-4.258000e-03,-1.60e-01,
-4.257000e-03,8.00e-02,
-4.256000e-03,0.00e+00,
-4.255000e-03,1.20e-01,
-4.254000e-03,8.00e-02,
-4.253000e-03,1.60e-01,
-4.252000e-03,2.40e-01,
-4.251000e-03,8.00e-02,
-4.250000e-03,-4.00e-02,
-4.249000e-03,8.00e-02,
-4.248000e-03,-8.00e-02,
-4.247000e-03,-8.00e-02,
-4.246000e-03,-8.00e-02,
-4.245000e-03,0.00e+00,
-4.244000e-03,8.00e-02,
-4.243000e-03,1.20e-01,
-4.242000e-03,1.60e-01,
-4.241000e-03,0.00e+00,
-4.240000e-03,0.00e+00,
-4.239000e-03,-4.00e-02,
-4.238000e-03,-8.00e-02,
-4.237000e-03,0.00e+00,
-4.236000e-03,0.00e+00,
-4.235000e-03,0.00e+00,
-4.234000e-03,8.00e-02,
-4.233000e-03,0.00e+00,
-4.232000e-03,8.00e-02,
-4.231000e-03,8.00e-02,
-4.230000e-03,3.20e-01,
-4.229000e-03,-4.00e-02,
-4.228000e-03,-4.00e-02,
-4.227000e-03,-4.00e-02,
-4.226000e-03,8.00e-02,
-4.225000e-03,0.00e+00,
-4.224000e-03,1.20e-01,
-4.223000e-03,1.60e-01,
-4.222000e-03,1.20e-01,
-4.221000e-03,1.20e-01,
-4.220000e-03,-4.00e-02,
-4.219000e-03,0.00e+00,
-4.218000e-03,-4.00e-02,
-4.217000e-03,-8.00e-02,
-4.216000e-03,-4.00e-02,
-4.215000e-03,-8.00e-02,
-4.214000e-03,8.00e-02,
-4.213000e-03,1.60e-01,
-4.212000e-03,1.20e-01,
-4.211000e-03,1.20e-01,
-4.210000e-03,-4.00e-02,
-4.209000e-03,-8.00e-02,
-4.208000e-03,-4.00e-02,
-4.207000e-03,-8.00e-02,
-4.206000e-03,-4.00e-02,
-4.205000e-03,0.00e+00,
-4.204000e-03,0.00e+00,
-4.203000e-03,8.00e-02,
-4.202000e-03,1.20e-01,
-4.201000e-03,4.40e-01,
-4.200000e-03,0.00e+00,
-4.199000e-03,0.00e+00,
-4.198000e-03,-4.00e-02,
-4.197000e-03,-4.00e-02,
-4.196000e-03,0.00e+00,
-4.195000e-03,-4.00e-02,
-4.194000e-03,0.00e+00,
-4.193000e-03,0.00e+00,
-4.192000e-03,0.00e+00,
-4.191000e-03,1.20e-01,
-4.190000e-03,0.00e+00,
-4.189000e-03,-8.00e-02,
-4.188000e-03,-8.00e-02,
-4.187000e-03,-4.00e-02,
-4.186000e-03,-8.00e-02,
-4.185000e-03,-1.60e-01,
-4.184000e-03,8.00e-02,
-4.183000e-03,0.00e+00,
-4.182000e-03,8.00e-02,
-4.181000e-03,8.00e-02,
-4.180000e-03,-4.00e-02,
-4.179000e-03,8.00e-02,
-4.178000e-03,-1.60e-01,
-4.177000e-03,-1.60e-01,
-4.176000e-03,-8.00e-02,
-4.175000e-03,-8.00e-02,
-4.174000e-03,-1.60e-01,
-4.173000e-03,-2.40e-01,
-4.172000e-03,-8.00e-02,
-4.171000e-03,-2.40e-01,
-4.170000e-03,-2.00e-01,
-4.169000e-03,-2.00e-01,
-4.168000e-03,-2.00e-01,
-4.167000e-03,-1.60e-01,
-4.166000e-03,-8.00e-02,
-4.165000e-03,-2.00e-01,
-4.164000e-03,-8.00e-02,
-4.163000e-03,-1.60e-01,
-4.162000e-03,-4.00e-02,
-4.161000e-03,8.00e-02,
-4.160000e-03,-4.00e-02,
-4.159000e-03,-4.00e-02,
-4.158000e-03,-1.60e-01,
-4.157000e-03,0.00e+00,
-4.156000e-03,8.00e-02,
-4.155000e-03,-8.00e-02,
-4.154000e-03,0.00e+00,
-4.153000e-03,-8.00e-02,
-4.152000e-03,8.00e-02,
-4.151000e-03,-4.00e-02,
-4.150000e-03,-4.00e-02,
-4.149000e-03,-4.00e-02,
-4.148000e-03,0.00e+00,
-4.147000e-03,-4.00e-02,
-4.146000e-03,0.00e+00,
-4.145000e-03,-4.00e-02,
-4.144000e-03,0.00e+00,
-4.143000e-03,8.00e-02,
-4.142000e-03,-2.00e-01,
-4.141000e-03,-4.00e-02,
-4.140000e-03,-2.00e-01,
-4.139000e-03,0.00e+00,
-4.138000e-03,0.00e+00,
-4.137000e-03,8.00e-02,
-4.136000e-03,8.00e-02,
-4.135000e-03,-4.00e-02,
-4.134000e-03,-4.00e-02,
-4.133000e-03,8.00e-02,
-4.132000e-03,8.00e-02,
-4.131000e-03,8.00e-02,
-4.130000e-03,0.00e+00,
-4.129000e-03,-4.00e-02,
-4.128000e-03,8.00e-02,
-4.127000e-03,8.00e-02,
-4.126000e-03,0.00e+00,
-4.125000e-03,-4.00e-02,
-4.124000e-03,-4.00e-02,
-4.123000e-03,-8.00e-02,
-4.122000e-03,0.00e+00,
-4.121000e-03,-4.00e-02,
-4.120000e-03,-4.00e-02,
-4.119000e-03,-1.60e-01,
-4.118000e-03,-4.00e-02,
-4.117000e-03,-4.00e-02,
-4.116000e-03,-8.00e-02,
-4.115000e-03,-8.00e-02,
-4.114000e-03,0.00e+00,
-4.113000e-03,-4.00e-02,
-4.112000e-03,-4.00e-02,
-4.111000e-03,-8.00e-02,
-4.110000e-03,8.00e-02,
-4.109000e-03,-4.00e-02,
-4.108000e-03,-4.00e-02,
-4.107000e-03,-4.00e-02,
-4.106000e-03,-8.00e-02,
-4.105000e-03,0.00e+00,
-4.104000e-03,-4.00e-02,
-4.103000e-03,8.00e-02,
-4.102000e-03,-4.00e-02,
-4.101000e-03,8.00e-02,
-4.100000e-03,0.00e+00,
-4.099000e-03,-3.20e-01,
-4.098000e-03,1.20e-01,
-4.097000e-03,-8.00e-02,
-4.096000e-03,8.00e-02,
-4.095000e-03,-8.00e-02,
-4.094000e-03,0.00e+00,
-4.093000e-03,-4.00e-02,
-4.092000e-03,0.00e+00,
-4.091000e-03,0.00e+00,
-4.090000e-03,-4.00e-02,
-4.089000e-03,-4.00e-02,
-4.088000e-03,0.00e+00,
-4.087000e-03,8.00e-02,
-4.086000e-03,0.00e+00,
-4.085000e-03,8.00e-02,
-4.084000e-03,1.20e-01,
-4.083000e-03,8.00e-02,
-4.082000e-03,0.00e+00,
-4.081000e-03,0.00e+00,
-4.080000e-03,0.00e+00,
-4.079000e-03,2.40e-01,
-4.078000e-03,2.40e-01,
-4.077000e-03,2.80e-01,
-4.076000e-03,2.80e-01,
-4.075000e-03,1.60e-01,
-4.074000e-03,2.40e-01,
-4.073000e-03,1.60e-01,
-4.072000e-03,2.40e-01,
-4.071000e-03,1.60e-01,
-4.070000e-03,-3.20e-01,
-4.069000e-03,2.40e-01,
-4.068000e-03,1.20e-01,
-4.067000e-03,0.00e+00,
-4.066000e-03,0.00e+00,
-4.065000e-03,8.00e-02,
-4.064000e-03,0.00e+00,
-4.063000e-03,8.00e-02,
-4.062000e-03,0.00e+00,
-4.061000e-03,2.40e-01,
-4.060000e-03,8.00e-02,
-4.059000e-03,-4.00e-02,
-4.058000e-03,1.20e-01,
-4.057000e-03,8.00e-02,
-4.056000e-03,1.20e-01,
-4.055000e-03,-8.00e-02,
-4.054000e-03,-4.00e-02,
-4.053000e-03,0.00e+00,
-4.052000e-03,-4.00e-02,
-4.051000e-03,8.00e-02,
-4.050000e-03,8.00e-02,
-4.049000e-03,0.00e+00,
-4.048000e-03,0.00e+00,
-4.047000e-03,8.00e-02,
-4.046000e-03,1.20e-01,
-4.045000e-03,-4.00e-02,
-4.044000e-03,-4.00e-02,
-4.043000e-03,8.00e-02,
-4.042000e-03,0.00e+00,
-4.041000e-03,1.20e-01,
-4.040000e-03,8.00e-02,
-4.039000e-03,1.20e-01,
-4.038000e-03,8.00e-02,
-4.037000e-03,0.00e+00,
-4.036000e-03,-4.00e-02,
-4.035000e-03,-1.60e-01,
-4.034000e-03,0.00e+00,
-4.033000e-03,8.00e-02,
-4.032000e-03,0.00e+00,
-4.031000e-03,-4.00e-02,
-4.030000e-03,-4.00e-02,
-4.029000e-03,8.00e-02,
-4.028000e-03,1.20e-01,
-4.027000e-03,8.00e-02,
-4.026000e-03,1.20e-01,
-4.025000e-03,-8.00e-02,
-4.024000e-03,0.00e+00,
-4.023000e-03,1.20e-01,
-4.022000e-03,8.00e-02,
-4.021000e-03,8.00e-02,
-4.020000e-03,1.20e-01,
-4.019000e-03,8.00e-02,
-4.018000e-03,-4.00e-02,
-4.017000e-03,8.00e-02,
-4.016000e-03,1.20e-01,
-4.015000e-03,8.00e-02,
-4.014000e-03,1.20e-01,
-4.013000e-03,1.20e-01,
-4.012000e-03,0.00e+00,
-4.011000e-03,-4.00e-02,
-4.010000e-03,1.60e-01,
-4.009000e-03,8.00e-02,
-4.008000e-03,-8.00e-02,
-4.007000e-03,0.00e+00,
-4.006000e-03,-4.00e-02,
-4.005000e-03,0.00e+00,
-4.004000e-03,0.00e+00,
-4.003000e-03,1.20e-01,
-4.002000e-03,0.00e+00,
-4.001000e-03,8.00e-02,
-4.000000e-03,0.00e+00,
-3.999000e-03,8.00e-02,
-3.998000e-03,-4.00e-02,
-3.997000e-03,1.60e-01,
-3.996000e-03,-8.00e-02,
-3.995000e-03,0.00e+00,
-3.994000e-03,-4.00e-02,
-3.993000e-03,0.00e+00,
-3.992000e-03,8.00e-02,
-3.991000e-03,0.00e+00,
-3.990000e-03,-4.00e-02,
-3.989000e-03,-4.00e-02,
-3.988000e-03,-4.00e-02,
-3.987000e-03,-8.00e-02,
-3.986000e-03,-2.00e-01,
-3.985000e-03,-4.00e-01,
-3.984000e-03,-2.40e-01,
-3.983000e-03,-1.60e-01,
-3.982000e-03,-1.60e-01,
-3.981000e-03,-1.60e-01,
-3.980000e-03,-8.00e-02,
-3.979000e-03,-8.00e-02,
-3.978000e-03,-4.00e-02,
-3.977000e-03,-4.00e-02,
-3.976000e-03,-1.60e-01,
-3.975000e-03,-8.00e-02,
-3.974000e-03,-4.00e-02,
-3.973000e-03,0.00e+00,
-3.972000e-03,-8.00e-02,
-3.971000e-03,0.00e+00,
-3.970000e-03,-4.00e-02,
-3.969000e-03,-8.00e-02,
-3.968000e-03,3.20e-01,
-3.967000e-03,-4.00e-02,
-3.966000e-03,8.00e-02,
-3.965000e-03,0.00e+00,
-3.964000e-03,-4.00e-02,
-3.963000e-03,0.00e+00,
-3.962000e-03,0.00e+00,
-3.961000e-03,-4.00e-02,
-3.960000e-03,0.00e+00,
-3.959000e-03,-8.00e-02,
-3.958000e-03,8.00e-02,
-3.957000e-03,8.00e-02,
-3.956000e-03,1.20e-01,
-3.955000e-03,8.00e-02,
-3.954000e-03,-4.00e-02,
-3.953000e-03,8.00e-02,
-3.952000e-03,0.00e+00,
-3.951000e-03,-8.00e-02,
-3.950000e-03,-8.00e-02,
-3.949000e-03,-4.00e-02,
-3.948000e-03,0.00e+00,
-3.947000e-03,-8.00e-02,
-3.946000e-03,8.00e-02,
-3.945000e-03,8.00e-02,
-3.944000e-03,0.00e+00,
-3.943000e-03,1.20e-01,
-3.942000e-03,-4.00e-02,
-3.941000e-03,0.00e+00,
-3.940000e-03,-4.00e-02,
-3.939000e-03,0.00e+00,
-3.938000e-03,-4.00e-02,
-3.937000e-03,-4.00e-02,
-3.936000e-03,-4.00e-02,
-3.935000e-03,1.20e-01,
-3.934000e-03,-4.00e-02,
-3.933000e-03,-4.00e-02,
-3.932000e-03,1.20e-01,
-3.931000e-03,0.00e+00,
-3.930000e-03,0.00e+00,
-3.929000e-03,-4.00e-02,
-3.928000e-03,-4.00e-02,
-3.927000e-03,8.00e-02,
-3.926000e-03,0.00e+00,
-3.925000e-03,0.00e+00,
-3.924000e-03,1.20e-01,
-3.923000e-03,1.60e-01,
-3.922000e-03,-4.00e-02,
-3.921000e-03,-4.00e-02,
-3.920000e-03,-4.00e-02,
-3.919000e-03,8.00e-02,
-3.918000e-03,0.00e+00,
-3.917000e-03,8.00e-02,
-3.916000e-03,8.00e-02,
-3.915000e-03,0.00e+00,
-3.914000e-03,8.00e-02,
-3.913000e-03,0.00e+00,
-3.912000e-03,0.00e+00,
-3.911000e-03,1.20e-01,
-3.910000e-03,0.00e+00,
-3.909000e-03,-1.60e-01,
-3.908000e-03,-4.00e-02,
-3.907000e-03,-8.00e-02,
-3.906000e-03,1.60e-01,
-3.905000e-03,0.00e+00,
-3.904000e-03,1.20e-01,
-3.903000e-03,-8.00e-02,
-3.902000e-03,-4.00e-02,
-3.901000e-03,-2.00e-01,
-3.900000e-03,-8.00e-02,
-3.899000e-03,0.00e+00,
-3.898000e-03,8.00e-02,
-3.897000e-03,0.00e+00,
-3.896000e-03,0.00e+00,
-3.895000e-03,8.00e-02,
-3.894000e-03,1.60e-01,
-3.893000e-03,8.00e-02,
-3.892000e-03,2.40e-01,
-3.891000e-03,1.60e-01,
-3.890000e-03,1.20e-01,
-3.889000e-03,8.00e-02,
-3.888000e-03,1.60e-01,
-3.887000e-03,2.40e-01,
-3.886000e-03,1.20e-01,
-3.885000e-03,2.40e-01,
-3.884000e-03,1.20e-01,
-3.883000e-03,8.00e-02,
-3.882000e-03,8.00e-02,
-3.881000e-03,0.00e+00,
-3.880000e-03,8.00e-02,
-3.879000e-03,-4.00e-02,
-3.878000e-03,-4.00e-02,
-3.877000e-03,1.60e-01,
-3.876000e-03,8.00e-02,
-3.875000e-03,1.60e-01,
-3.874000e-03,0.00e+00,
-3.873000e-03,0.00e+00,
-3.872000e-03,1.60e-01,
-3.871000e-03,0.00e+00,
-3.870000e-03,1.60e-01,
-3.869000e-03,0.00e+00,
-3.868000e-03,1.20e-01,
-3.867000e-03,-4.00e-02,
-3.866000e-03,-1.60e-01,
-3.865000e-03,-8.00e-02,
-3.864000e-03,-4.00e-02,
-3.863000e-03,1.20e-01,
-3.862000e-03,8.00e-02,
-3.861000e-03,1.20e-01,
-3.860000e-03,1.20e-01,
-3.859000e-03,1.20e-01,
-3.858000e-03,8.00e-02,
-3.857000e-03,1.20e-01,
-3.856000e-03,8.00e-02,
-3.855000e-03,0.00e+00,
-3.854000e-03,-8.00e-02,
-3.853000e-03,0.00e+00,
-3.852000e-03,0.00e+00,
-3.851000e-03,1.20e-01,
-3.850000e-03,1.20e-01,
-3.849000e-03,-8.00e-02,
-3.848000e-03,1.60e-01,
-3.847000e-03,8.00e-02,
-3.846000e-03,0.00e+00,
-3.845000e-03,8.00e-02,
-3.844000e-03,0.00e+00,
-3.843000e-03,8.00e-02,
-3.842000e-03,1.60e-01,
-3.841000e-03,8.00e-02,
-3.840000e-03,8.00e-02,
-3.839000e-03,0.00e+00,
-3.838000e-03,8.00e-02,
-3.837000e-03,-1.60e-01,
-3.836000e-03,0.00e+00,
-3.835000e-03,8.00e-02,
-3.834000e-03,8.00e-02,
-3.833000e-03,-4.00e-02,
-3.832000e-03,0.00e+00,
-3.831000e-03,8.00e-02,
-3.830000e-03,1.20e-01,
-3.829000e-03,1.60e-01,
-3.828000e-03,-1.60e-01,
-3.827000e-03,1.60e-01,
-3.826000e-03,-4.00e-02,
-3.825000e-03,8.00e-02,
-3.824000e-03,0.00e+00,
-3.823000e-03,-4.00e-02,
-3.822000e-03,0.00e+00,
-3.821000e-03,0.00e+00,
-3.820000e-03,8.00e-02,
-3.819000e-03,1.20e-01,
-3.818000e-03,-4.00e-02,
-3.817000e-03,8.00e-02,
-3.816000e-03,-4.00e-02,
-3.815000e-03,0.00e+00,
-3.814000e-03,0.00e+00,
-3.813000e-03,8.00e-02,
-3.812000e-03,8.00e-02,
-3.811000e-03,0.00e+00,
-3.810000e-03,0.00e+00,
-3.809000e-03,-4.00e-02,
-3.808000e-03,-4.00e-02,
-3.807000e-03,1.60e-01,
-3.806000e-03,0.00e+00,
-3.805000e-03,2.80e-01,
-3.804000e-03,-8.00e-02,
-3.803000e-03,-4.00e-02,
-3.802000e-03,-4.00e-02,
-3.801000e-03,-4.00e-02,
-3.800000e-03,-1.60e-01,
-3.799000e-03,-3.20e-01,
-3.798000e-03,-3.20e-01,
-3.797000e-03,-1.60e-01,
-3.796000e-03,-1.60e-01,
-3.795000e-03,-4.00e-02,
-3.794000e-03,-8.00e-02,
-3.793000e-03,-8.00e-02,
-3.792000e-03,-2.40e-01,
-3.791000e-03,-1.60e-01,
-3.790000e-03,-8.00e-02,
-3.789000e-03,-4.00e-02,
-3.788000e-03,-4.00e-02,
-3.787000e-03,-4.00e-02,
-3.786000e-03,-4.00e-02,
-3.785000e-03,8.00e-02,
-3.784000e-03,0.00e+00,
-3.783000e-03,0.00e+00,
-3.782000e-03,0.00e+00,
-3.781000e-03,-4.00e-02,
-3.780000e-03,1.20e-01,
-3.779000e-03,-4.00e-02,
-3.778000e-03,1.60e-01,
-3.777000e-03,8.00e-02,
-3.776000e-03,1.60e-01,
-3.775000e-03,0.00e+00,
-3.774000e-03,-8.00e-02,
-3.773000e-03,0.00e+00,
-3.772000e-03,0.00e+00,
-3.771000e-03,-4.00e-02,
-3.770000e-03,-4.00e-02,
-3.769000e-03,0.00e+00,
-3.768000e-03,0.00e+00,
-3.767000e-03,8.00e-02,
-3.766000e-03,-4.00e-02,
-3.765000e-03,8.00e-02,
-3.764000e-03,2.40e-01,
-3.763000e-03,-8.00e-02,
-3.762000e-03,0.00e+00,
-3.761000e-03,0.00e+00,
-3.760000e-03,0.00e+00,
-3.759000e-03,0.00e+00,
-3.758000e-03,0.00e+00,
-3.757000e-03,8.00e-02,
-3.756000e-03,0.00e+00,
-3.755000e-03,0.00e+00,
-3.754000e-03,8.00e-02,
-3.753000e-03,8.00e-02,
-3.752000e-03,0.00e+00,
-3.751000e-03,0.00e+00,
-3.750000e-03,0.00e+00,
-3.749000e-03,-1.60e-01,
-3.748000e-03,0.00e+00,
-3.747000e-03,1.60e-01,
-3.746000e-03,-4.00e-02,
-3.745000e-03,-4.00e-02,
-3.744000e-03,-4.00e-02,
-3.743000e-03,-4.00e-02,
-3.742000e-03,0.00e+00,
-3.741000e-03,-8.00e-02,
-3.740000e-03,-4.00e-02,
-3.739000e-03,-4.00e-02,
-3.738000e-03,-4.00e-02,
-3.737000e-03,0.00e+00,
-3.736000e-03,0.00e+00,
-3.735000e-03,1.60e-01,
-3.734000e-03,-8.00e-02,
-3.733000e-03,8.00e-02,
-3.732000e-03,0.00e+00,
-3.731000e-03,-4.00e-02,
-3.730000e-03,0.00e+00,
-3.729000e-03,-4.00e-02,
-3.728000e-03,0.00e+00,
-3.727000e-03,0.00e+00,
-3.726000e-03,0.00e+00,
-3.725000e-03,8.00e-02,
-3.724000e-03,1.60e-01,
-3.723000e-03,0.00e+00,
-3.722000e-03,1.20e-01,
-3.721000e-03,8.00e-02,
-3.720000e-03,-8.00e-02,
-3.719000e-03,0.00e+00,
-3.718000e-03,-4.00e-02,
-3.717000e-03,0.00e+00,
-3.716000e-03,0.00e+00,
-3.715000e-03,8.00e-02,
-3.714000e-03,1.20e-01,
-3.713000e-03,0.00e+00,
-3.712000e-03,0.00e+00,
-3.711000e-03,2.80e-01,
-3.710000e-03,0.00e+00,
-3.709000e-03,-4.00e-02,
-3.708000e-03,-8.00e-02,
-3.707000e-03,8.00e-02,
-3.706000e-03,3.20e-01,
-3.705000e-03,1.20e-01,
-3.704000e-03,3.20e-01,
-3.703000e-03,1.20e-01,
-3.702000e-03,3.20e-01,
-3.701000e-03,2.40e-01,
-3.700000e-03,1.20e-01,
-3.699000e-03,1.60e-01,
-3.698000e-03,8.00e-02,
-3.697000e-03,1.60e-01,
-3.696000e-03,1.20e-01,
-3.695000e-03,0.00e+00,
-3.694000e-03,1.20e-01,
-3.693000e-03,-4.00e-02,
-3.692000e-03,1.60e-01,
-3.691000e-03,1.20e-01,
-3.690000e-03,1.20e-01,
-3.689000e-03,1.20e-01,
-3.688000e-03,0.00e+00,
-3.687000e-03,-4.00e-02,
-3.686000e-03,-4.00e-02,
-3.685000e-03,-4.00e-02,
-3.684000e-03,0.00e+00,
-3.683000e-03,-4.00e-02,
-3.682000e-03,8.00e-02,
-3.681000e-03,-4.00e-02,
-3.680000e-03,8.00e-02,
-3.679000e-03,8.00e-02,
-3.678000e-03,0.00e+00,
-3.677000e-03,-4.00e-02,
-3.676000e-03,-1.60e-01,
-3.675000e-03,-4.00e-02,
-3.674000e-03,-2.00e-01,
-3.673000e-03,-4.00e-02,
